Amsterdam;443;285;;;;;;;
Ancora;1192;834;;;;;;;
Athina;917;835;;;;;;;
Barcelona;297;783;;;;;;;
Berlin;681;316;;;;;;;
Brest;185;437;;;;;;;
Brindisi;753;730;;;;;;;
Bruxelles;413;348;;;;;;;
Bucuresti;1022;597;;;;;;;
Budapest;821;504;;;;;;;
Cadiz;149;869;;;;;;;
Constantinople;1090;762;;;;;;;
Danzig;833;213;;;;;;;
Dieppe;302;401;;;;;;;
Edimburg;235;86;;;;;;;
Erzurum;1298;803;;;;;;;
Essen;549;296;;;;;;;
Frankfurt;530;390;;;;;;;
Kharkov;1274;445;;;;;;;
Kiev;1097;376;;;;;;;
Kobenhavn;645;159;;;;;;;
Lisboa;64;798;;;;;;;
London;317;281;;;;;;;
Madrid;151;769;;;;;;;
Marseille;480;658;;;;;;;
Moskva;1290;247;;;;;;;
Munchen;606;449;;;;;;;
Palermo;668;870;;;;;;;
Pamplona;281;662;;;;;;;
Paris;366;459;;;;;;;
Petrograd;1160;90;;;;;;;
Riga;940;96;;;;;;;
Roma;638;696;;;;;;;
Rostov;1328;515;;;;;;;
Sarajevo;853;670;;;;;;;
Sevastopol;1205;615;;;;;;;
Smolensk;1179;279;;;;;;;
Smyrna;1032;868;;;;;;;
Sochi;1322;636;;;;;;;
Sofia;941;683;;;;;;;
Stockholm;781;57;;;;;;;
Venezia;627;576;;;;;;;
Warszawa;896;305;;;;;;;
Wien;757;469;;;;;;;
Wilno;1045;272;;;;;;;
Zagrab;740;592;;;;;;;
Zurick;517;533;;;;;;;
